Assignment 2 - Data Cleaning
…
if Snow_cover + Water_cover + Land_cover < 100 then inspect and see what’s going on

if Snow_cover + Water_cover + Land_cover > 100 then return NAs for all the cover types

cover_fixed <- totalcover_fixed %>%
  rowwise() %>% 
  mutate(Total_cover = sum(Snow_cover, Water_cover, Land_cover, na.rm = TRUE), # sum across the rows; use rowwise() and na.rm = TRUE to still return the sum instead of NA even if one of the values is an NA
         Total_cover = ifelse(Total_cover == 100, 100, NA)) # sometimes the sum is less than or greater than 100, so set those to NA

cover_fixed %>%
  filter(is.na(Total_cover)) %>%
  select(-Notes, -Observer, -Site)

# A tibble: 5,412 × 8
# Rowwise: 
    Year Date      Plot  Location Snow_cover Water_cover Land_cover Total_cover
   <dbl> <chr>     <chr> <chr>         <dbl>       <dbl>      <dbl>       <dbl>
 1  2011 29-May-11 brw6  d2               NA          NA         NA          NA
 2  2011 29-May-11 brw6  d4               NA          NA         NA          NA
 3  2011 29-May-11 brw6  d6               NA          NA         NA          NA
 4  2011 29-May-11 brw6  f2               NA          NA         NA          NA
 5  2011 29-May-11 brw6  f4               NA          NA         NA          NA
 6  2011 29-May-11 brw6  f6               NA          NA         NA          NA
 7  2011 29-May-11 brw6  f8               NA          NA         NA          NA
 8  2011 29-May-11 brw6  h2               NA          NA         NA          NA
 9  2011 29-May-11 brw6  h4               NA          NA         NA          NA
10  2011 29-May-11 brw6  j2               NA          NA         NA          NA
# ℹ 5,402 more rows
…
